…
## What is mean total number of steps taken per day?
#### 1. Calculate the total number of steps taken per day

```r
# For this part of the assignment, you can ignore the missing values in the dataset.
dsub <- data %>%
        group_by(date) %>%
        summarise(steps = sum(steps)) %>%
        na.omit()
print(dsub)
```

```
## # A tibble: 53 x 2
##    date       steps
##    <date>     <int>
##  1 2012-10-02   126
##  2 2012-10-03 11352
##  3 2012-10-04 12116
##  4 2012-10-05 13294
##  5 2012-10-06 15420
##  6 2012-10-07 11015
##  7 2012-10-09 12811
##  8 2012-10-10  9900
##  9 2012-10-11 10304
## 10 2012-10-12 17382
## # … with 43 more rows
```
…
#### 3. Create a new dataset that is equal to the original dataset but with the missing data filled in.

```r
dsub3 <- dsub3 %>% select(4,2,3) %>% rename(steps = imputed) %>% as_tibble()
print(dsub3)
```

```
## # A tibble: 17,568 x 3
##    steps    date       interval
##    <impute> <date>        <int>
##  1 37.3826  2012-10-01        0
##  2 37.3826  2012-10-01        5
##  3 37.3826  2012-10-01       10
##  4 37.3826  2012-10-01       15
##  5 37.3826  2012-10-01       20
##  6 37.3826  2012-10-01       25
##  7 37.3826  2012-10-01       30
##  8 37.3826  2012-10-01       35
##  9 37.3826  2012-10-01       40
## 10 37.3826  2012-10-01       45
## # … with 17,558 more rows
```
…
```
## # A tibble: 576 x 3
##    dtype   interval steps
##    <chr>      <int> <dbl>
##  1 Weekday        0  7.01
##  2 Weekday        5  5.38
##  3 Weekday       10  5.14
##  4 Weekday       15  5.16
##  5 Weekday       20  5.07
##  6 Weekday       25  6.30
##  7 Weekday       30  5.61
##  8 Weekday       35  6.01
##  9 Weekday       40  4.98
## 10 Weekday       45  6.58
## # … with 566 more rows
```
…
